…
where:

1.  `condition` is something that can be true or false. For example, we
    could do `x > median(x)` to test if each individual point of `x` is
    greater than the median of `x` or not.
2.  `true` is what is supposed to happen when the condition is true.
3.  `false` is what is supposed to happen when the condition is false.

So with our example data, we can do:

    dt %>% 
      mutate(x_cat = if_else(x > median(x), "high", "low")) %>% 
      as_tibble()

    ## # A tibble: 1,000,000 x 5
    ##    grp         x       y     z x_cat
    ##    <fct>   <dbl>   <dbl> <int> <chr>
    ##  1 1     -1.00   -0.443      6 low  
    ##  2 2      0.119   0.112      1 high 
    ##  3 3      0.729  -0.435     10 high 
    ##  4 2      0.633  -0.558      4 high 
    ##  5 2      0.279   0.225      9 high 
    ##  6 2     -0.0469  0.0551     1 low  
    ##  7 2     -1.20   -1.53       2 low  
    ##  8 1     -0.931  -1.57       3 low  
    ##  9 3     -0.673  -2.44       8 low  
    ## 10 2     -0.957  -2.10       9 low  
    ## # … with 999,990 more rows
…
A newer, but fantastic, approach is using `dplyr::case_when()`. This
uses a unique syntax, but one that can avoid some issues. When there’s
more than 2 levels of the new variable (e.g., not just a “high” and
“low” but there is also a “moderate” level) then we use what is called
*nested ifelse statements*. These can get messy, with many parenthases.
For example, with just two three levels, we now need to use two
`if_else()` statements, where the second is in the `false` place of the
first.

    dt %>% 
      mutate(x_cat = if_else(x < -.5, "low",
                     if_else(x < .5 , "moderate", "high"))) %>% 
      as_tibble()

    ## # A tibble: 1,000,000 x 5
    ##    grp         x       y     z x_cat   
    ##    <fct>   <dbl>   <dbl> <int> <chr>   
    ##  1 1     -1.00   -0.443      6 low     
    ##  2 2      0.119   0.112      1 moderate
    ##  3 3      0.729  -0.435     10 high    
    ##  4 2      0.633  -0.558      4 high    
    ##  5 2      0.279   0.225      9 moderate
    ##  6 2     -0.0469  0.0551     1 moderate
    ##  7 2     -1.20   -1.53       2 low     
    ##  8 1     -0.931  -1.57       3 low     
    ##  9 3     -0.673  -2.44       8 low     
    ## 10 2     -0.957  -2.10       9 low     
    ## # … with 999,990 more rows
…
