…
### Repeated Measures ANOVA

Repeated measures is now much like the other types of ANOVA. The major
difference is that we need to change the format of the data.

    z_long <- z %>%
      tidyr::gather("meas", "value", a1, a2, a3)

    ## # A tibble: 900 x 5
    ##         b      c    ID  meas    value
    ##    <fctr> <fctr> <int> <chr>    <dbl>
    ##  1      A      0     1    a1 3.370958
    ##  2      A      0     2    a1 1.435302
    ##  3      A      1     3    a1 2.363128
    ##  4      A      0     4    a1 2.632863
    ##  5      A      1     5    a1 2.404268
    ##  6      A      0     6    a1 1.893875
    ##  7      A      1     7    a1 3.511522
    ##  8      A      0     8    a1 1.905341
    ##  9      A      0     9    a1 4.018424
    ## 10      A      1    10    a1 1.937286
    ## # ... with 890 more rows
…
