…
After doing all the necessary nesting data manipulations and analyses,
we can then unnest with `dt_unnest()`.

### A Short Example

For example, we may want to analyze the `starwars` data by movie. The
issue here is that the films are already in a list-column, as shown
below:

{% highlight r %}
select(starwars, name, species, homeworld, films)
{% endhighlight %}

    ## # A tibble: 87 x 4
    ##    name               species homeworld films    
    ##    <chr>              <chr>   <chr>     <list>   
    ##  1 Luke Skywalker     Human   Tatooine  <chr [5]>
    ##  2 C-3PO              Droid   Tatooine  <chr [6]>
    ##  3 R2-D2              Droid   Naboo     <chr [7]>
    ##  4 Darth Vader        Human   Tatooine  <chr [4]>
    ##  5 Leia Organa        Human   Alderaan  <chr [5]>
    ##  6 Owen Lars          Human   Tatooine  <chr [3]>
    ##  7 Beru Whitesun lars Human   Tatooine  <chr [3]>
    ##  8 R5-D4              Droid   Tatooine  <chr [1]>
    ##  9 Biggs Darklighter  Human   Tatooine  <chr [1]>
    ## 10 Obi-Wan Kenobi     Human   Stewjon   <chr [6]>
    ## # … with 77 more rows
…
