…
1.  `condition` is something that can be true or false. For example, we
    could do `x > median(x)` to test if each individual point of `x` is
    greater than the median of `x` or not.
2.  `true` is what is supposed to happen when the condition is true.
3.  `false` is what is supposed to happen when the condition is false.

So with our example data, we can do:

{% highlight r %}
dt %>% 
  mutate(x_cat = if_else(x > median(x), "high", "low"))
{% endhighlight %}

    ## # A tibble: 1,000,000 x 5
    ##    grp         x      y     z x_cat
    ##    <fct>   <dbl>  <dbl> <int> <chr>
    ##  1 2      1.54    0.249     3 high 
    ##  2 1     -0.121   1.14      7 low  
    ##  3 3      1.36    0.258     6 high 
    ##  4 3      1.39   -0.201     5 high 
    ##  5 1      0.222   0.380     3 high 
    ##  6 1      0.518  -0.875     7 high 
    ##  7 3      0.0319  1.14     NA high 
    ##  8 2     -0.843  -0.997     6 low  
    ##  9 3      1.51   -1.05      1 high 
    ## 10 2      0.110  -0.351     2 high 
    ## # … with 999,990 more rows
…
{% highlight r %}
dt %>% 
  mutate(x_cat = if_else(x < -.5, "low",
                 if_else(x < .5 , "moderate", "high"))) %>% 
  as_tibble()
{% endhighlight %}

    ## # A tibble: 1,000,000 x 5
    ##    grp         x      y     z x_cat   
    ##    <fct>   <dbl>  <dbl> <int> <chr>   
    ##  1 2      1.54    0.249     3 high    
    ##  2 1     -0.121   1.14      7 moderate
    ##  3 3      1.36    0.258     6 high    
    ##  4 3      1.39   -0.201     5 high    
    ##  5 1      0.222   0.380     3 moderate
    ##  6 1      0.518  -0.875     7 high    
    ##  7 3      0.0319  1.14     NA moderate
    ##  8 2     -0.843  -0.997     6 low     
    ##  9 3      1.51   -1.05      1 high    
    ## 10 2      0.110  -0.351     2 moderate
    ## # … with 999,990 more rows
…
